{
	"inputs" : 
	[
		{
			"path" : "CMakeLists.txt"
		},
		{
			"isCMake" : true,
			"isExternal" : true,
			"path" : "D:/SDK/Android_SDK/cmake/3.18.1/share/cmake-3.18/Modules/CMakeDetermineSystem.cmake"
		},
		{
			"isExternal" : true,
			"path" : "D:/SDK/Android_SDK/ndk/23.1.7779620/build/cmake/android.toolchain.cmake"
		},
		{
			"isExternal" : true,
			"path" : "D:/SDK/Android_SDK/ndk/23.1.7779620/build/cmake/android-legacy.toolchain.cmake"
		},
		{
			"isExternal" : true,
			"path" : "D:/SDK/Android_SDK/ndk/23.1.7779620/build/cmake/platforms.cmake"
		},
		{
			"isExternal" : true,
			"path" : "D:/SDK/Android_SDK/ndk/23.1.7779620/build/cmake/compiler_id.cmake"
		},
		{
			"isCMake" : true,
			"isExternal" : true,
			"path" : "D:/SDK/Android_SDK/cmake/3.18.1/share/cmake-3.18/Modules/Platform/Android-Determine.cmake"
		},
		{
			"isCMake" : true,
			"isExternal" : true,
			"path" : "D:/SDK/Android_SDK/cmake/3.18.1/share/cmake-3.18/Modules/CMakeSystem.cmake.in"
		},
		{
			"isGenerated" : true,
			"path" : "D:/Code/Flutter Experiments/jnijen_hardware_details/android/app/.cxx/RelWithDebInfo/3t95c531/arm64-v8a/CMakeFiles/3.18.1-g262b901-dirty/CMakeSystem.cmake"
		},
		{
			"isExternal" : true,
			"path" : "D:/SDK/Android_SDK/ndk/23.1.7779620/build/cmake/android.toolchain.cmake"
		},
		{
			"isCMake" : true,
			"isExternal" : true,
			"path" : "D:/SDK/Android_SDK/cmake/3.18.1/share/cmake-3.18/Modules/CMakeSystemSpecificInitialize.cmake"
		},
		{
			"isCMake" : true,
			"isExternal" : true,
			"path" : "D:/SDK/Android_SDK/cmake/3.18.1/share/cmake-3.18/Modules/Platform/Android-Initialize.cmake"
		},
		{
			"isCMake" : true,
			"isExternal" : true,
			"path" : "D:/SDK/Android_SDK/cmake/3.18.1/share/cmake-3.18/Modules/CMakeDetermineCCompiler.cmake"
		},
		{
			"isCMake" : true,
			"isExternal" : true,
			"path" : "D:/SDK/Android_SDK/cmake/3.18.1/share/cmake-3.18/Modules/CMakeDetermineCompiler.cmake"
		},
		{
			"isCMake" : true,
			"isExternal" : true,
			"path" : "D:/SDK/Android_SDK/cmake/3.18.1/share/cmake-3.18/Modules/Platform/Android-Determine-C.cmake"
		},
		{
			"isCMake" : true,
			"isExternal" : true,
			"path" : "D:/SDK/Android_SDK/cmake/3.18.1/share/cmake-3.18/Modules/Platform/Android/Determine-Compiler.cmake"
		},
		{
			"isCMake" : true,
			"isExternal" : true,
			"path" : "D:/SDK/Android_SDK/cmake/3.18.1/share/cmake-3.18/Modules/CMakeFindBinUtils.cmake"
		},
		{
			"isCMake" : true,
			"isExternal" : true,
			"path" : "D:/SDK/Android_SDK/cmake/3.18.1/share/cmake-3.18/Modules/Compiler/Clang-FindBinUtils.cmake"
		},
		{
			"isCMake" : true,
			"isExternal" : true,
			"path" : "D:/SDK/Android_SDK/cmake/3.18.1/share/cmake-3.18/Modules/CMakeCCompiler.cmake.in"
		},
		{
			"isGenerated" : true,
			"path" : "D:/Code/Flutter Experiments/jnijen_hardware_details/android/app/.cxx/RelWithDebInfo/3t95c531/arm64-v8a/CMakeFiles/3.18.1-g262b901-dirty/CMakeCCompiler.cmake"
		},
		{
			"isCMake" : true,
			"isExternal" : true,
			"path" : "D:/SDK/Android_SDK/cmake/3.18.1/share/cmake-3.18/Modules/CMakeSystemSpecificInformation.cmake"
		},
		{
			"isCMake" : true,
			"isExternal" : true,
			"path" : "D:/SDK/Android_SDK/cmake/3.18.1/share/cmake-3.18/Modules/CMakeGenericSystem.cmake"
		},
		{
			"isCMake" : true,
			"isExternal" : true,
			"path" : "D:/SDK/Android_SDK/cmake/3.18.1/share/cmake-3.18/Modules/CMakeInitializeConfigs.cmake"
		},
		{
			"isCMake" : true,
			"isExternal" : true,
			"path" : "D:/SDK/Android_SDK/cmake/3.18.1/share/cmake-3.18/Modules/Platform/Android.cmake"
		},
		{
			"isCMake" : true,
			"isExternal" : true,
			"path" : "D:/SDK/Android_SDK/cmake/3.18.1/share/cmake-3.18/Modules/Platform/Linux.cmake"
		},
		{
			"isCMake" : true,
			"isExternal" : true,
			"path" : "D:/SDK/Android_SDK/cmake/3.18.1/share/cmake-3.18/Modules/Platform/UnixPaths.cmake"
		},
		{
			"isCMake" : true,
			"isExternal" : true,
			"path" : "D:/SDK/Android_SDK/cmake/3.18.1/share/cmake-3.18/Modules/CMakeCInformation.cmake"
		},
		{
			"isCMake" : true,
			"isExternal" : true,
			"path" : "D:/SDK/Android_SDK/cmake/3.18.1/share/cmake-3.18/Modules/CMakeLanguageInformation.cmake"
		},
		{
			"isCMake" : true,
			"isExternal" : true,
			"path" : "D:/SDK/Android_SDK/cmake/3.18.1/share/cmake-3.18/Modules/Compiler/Clang-C.cmake"
		},
		{
			"isCMake" : true,
			"isExternal" : true,
			"path" : "D:/SDK/Android_SDK/cmake/3.18.1/share/cmake-3.18/Modules/Compiler/Clang.cmake"
		},
		{
			"isCMake" : true,
			"isExternal" : true,
			"path" : "D:/SDK/Android_SDK/cmake/3.18.1/share/cmake-3.18/Modules/Compiler/CMakeCommonCompilerMacros.cmake"
		},
		{
			"isCMake" : true,
			"isExternal" : true,
			"path" : "D:/SDK/Android_SDK/cmake/3.18.1/share/cmake-3.18/Modules/Compiler/GNU.cmake"
		},
		{
			"isCMake" : true,
			"isExternal" : true,
			"path" : "D:/SDK/Android_SDK/cmake/3.18.1/share/cmake-3.18/Modules/Compiler/CMakeCommonCompilerMacros.cmake"
		},
		{
			"isCMake" : true,
			"isExternal" : true,
			"path" : "D:/SDK/Android_SDK/cmake/3.18.1/share/cmake-3.18/Modules/Internal/CMakeCheckCompilerFlag.cmake"
		},
		{
			"isCMake" : true,
			"isExternal" : true,
			"path" : "D:/SDK/Android_SDK/cmake/3.18.1/share/cmake-3.18/Modules/CMakeCheckCompilerFlagCommonPatterns.cmake"
		},
		{
			"isCMake" : true,
			"isExternal" : true,
			"path" : "D:/SDK/Android_SDK/cmake/3.18.1/share/cmake-3.18/Modules/Platform/Android-Clang-C.cmake"
		},
		{
			"isCMake" : true,
			"isExternal" : true,
			"path" : "D:/SDK/Android_SDK/cmake/3.18.1/share/cmake-3.18/Modules/Platform/Android-Clang.cmake"
		},
		{
			"isCMake" : true,
			"isExternal" : true,
			"path" : "D:/SDK/Android_SDK/cmake/3.18.1/share/cmake-3.18/Modules/CMakeCommonLanguageInclude.cmake"
		},
		{
			"isCMake" : true,
			"isExternal" : true,
			"path" : "D:/SDK/Android_SDK/cmake/3.18.1/share/cmake-3.18/Modules/CMakeTestCCompiler.cmake"
		},
		{
			"isCMake" : true,
			"isExternal" : true,
			"path" : "D:/SDK/Android_SDK/cmake/3.18.1/share/cmake-3.18/Modules/CMakeTestCompilerCommon.cmake"
		},
		{
			"isCMake" : true,
			"isExternal" : true,
			"path" : "D:/SDK/Android_SDK/cmake/3.18.1/share/cmake-3.18/Modules/CMakeDetermineCompilerABI.cmake"
		},
		{
			"isCMake" : true,
			"isExternal" : true,
			"path" : "D:/SDK/Android_SDK/cmake/3.18.1/share/cmake-3.18/Modules/CMakeParseImplicitIncludeInfo.cmake"
		},
		{
			"isCMake" : true,
			"isExternal" : true,
			"path" : "D:/SDK/Android_SDK/cmake/3.18.1/share/cmake-3.18/Modules/CMakeParseImplicitLinkInfo.cmake"
		},
		{
			"isCMake" : true,
			"isExternal" : true,
			"path" : "D:/SDK/Android_SDK/cmake/3.18.1/share/cmake-3.18/Modules/CMakeTestCompilerCommon.cmake"
		},
		{
			"isCMake" : true,
			"isExternal" : true,
			"path" : "D:/SDK/Android_SDK/cmake/3.18.1/share/cmake-3.18/Modules/CMakeCCompilerABI.c"
		},
		{
			"isCMake" : true,
			"isExternal" : true,
			"path" : "D:/SDK/Android_SDK/cmake/3.18.1/share/cmake-3.18/Modules/CMakeDetermineCompileFeatures.cmake"
		},
		{
			"isCMake" : true,
			"isExternal" : true,
			"path" : "D:/SDK/Android_SDK/cmake/3.18.1/share/cmake-3.18/Modules/Internal/FeatureTesting.cmake"
		},
		{
			"isCMake" : true,
			"isExternal" : true,
			"path" : "D:/SDK/Android_SDK/cmake/3.18.1/share/cmake-3.18/Modules/CMakeCCompiler.cmake.in"
		},
		{
			"isGenerated" : true,
			"path" : "D:/Code/Flutter Experiments/jnijen_hardware_details/android/app/.cxx/RelWithDebInfo/3t95c531/arm64-v8a/CMakeFiles/3.18.1-g262b901-dirty/CMakeCCompiler.cmake"
		}
	],
	"kind" : "cmakeFiles",
	"paths" : 
	{
		"build" : "D:/Code/Flutter Experiments/jnijen_hardware_details/android/app/.cxx/RelWithDebInfo/3t95c531/arm64-v8a",
		"source" : "D:/Code/Flutter Experiments/jnijen_hardware_details/src"
	},
	"version" : 
	{
		"major" : 1,
		"minor" : 0
	}
}
