{
  "buildFiles": [
    "D:\\Code\\Flutter Experiments\\jnijen_hardware_details\\src\\CMakeLists.txt"
  ],
  "cleanCommandsComponents": [
    [
      "D:\\SDK\\Android_SDK\\cmake\\3.18.1\\bin\\ninja.exe",
      "-C",
      "D:\\Code\\Flutter Experiments\\jnijen_hardware_details\\android\\app\\.cxx\\RelWithDebInfo\\3t95c531\\armeabi-v7a",
      "clean"
    ]
  ],
  "buildTargetsCommandComponents": [
    "D:\\SDK\\Android_SDK\\cmake\\3.18.1\\bin\\ninja.exe",
    "-C",
    "D:\\Code\\Flutter Experiments\\jnijen_hardware_details\\android\\app\\.cxx\\RelWithDebInfo\\3t95c531\\armeabi-v7a",
    "{LIST_OF_TARGETS_TO_BUILD}"
  ],
  "libraries": {
    "hardware_utils::@6890427a1f51a3e7e1df": {
      "toolchain": "toolchain",
      "abi": "armeabi-v7a",
      "artifactName": "hardware_utils",
      "output": "D:\\Code\\Flutter Experiments\\jnijen_hardware_details\\build\\app\\intermediates\\cxx\\RelWithDebInfo\\3t95c531\\obj\\armeabi-v7a\\libhardware_utils.so",
      "runtimeFiles": []
    }
  },
  "toolchains": {
    "toolchain": {
      "cCompilerExecutable": "D:\\SDK\\Android_SDK\\ndk\\23.1.7779620\\toolchains\\llvm\\prebuilt\\windows-x86_64\\bin\\clang.exe",
      "cppCompilerExecutable": "D:\\SDK\\Android_SDK\\ndk\\23.1.7779620\\toolchains\\llvm\\prebuilt\\windows-x86_64\\bin\\clang++.exe"
    }
  },
  "cFileExtensions": [
    "c"
  ],
  "cppFileExtensions": []
}